{
	"info": {
		"_postman_id": "d8547cdf-ef42-4642-86b2-46141db34e16",
		"name": "ChatApp",
		"schema": "https://schema.getpostman.com/json/collection/v2.1.0/collection.json"
	},
	"item": [
		{
			"name": "Add user to room",
			"item": [
				{
					"name": "[OK] user add same user to room ",
					"request": {
						"method": "POST",
						"header": [
							{
								"key": "user-id",
								"value": "cddbda0e-b709-4fb4-8b4e-8f9736405d30",
								"type": "default"
							}
						],
						"body": {
							"mode": "raw",
							"raw": "{\n    \"userId\": \"cddbda0e-b709-4fb4-8b4e-8f9736405d30\"\n}",
							"options": {
								"raw": {
									"language": "json"
								}
							}
						},
						"url": {
							"raw": "localhost:3000/room_management/rooms/de47f7b3-527e-4f7d-a631-8ea0e366bc0f/users",
							"host": [
								"localhost"
							],
							"port": "3000",
							"path": [
								"room_management",
								"rooms",
								"de47f7b3-527e-4f7d-a631-8ea0e366bc0f",
								"users"
							]
						}
					},
					"response": []
				},
				{
					"name": "[OK] room's owner add user to room ",
					"request": {
						"method": "POST",
						"header": [
							{
								"key": "user-id",
								"value": "80cc2550-81d4-4141-bc89-7bc7a519e4aa",
								"type": "default"
							}
						],
						"body": {
							"mode": "raw",
							"raw": "{\n    \"userId\": \"cddbda0e-b709-4fb4-8b4e-8f9736405d30\"\n}",
							"options": {
								"raw": {
									"language": "json"
								}
							}
						},
						"url": {
							"raw": "localhost:3000/room_management/rooms/0d66d7b8-9ce2-4327-abfd-0d46723881fc/users",
							"host": [
								"localhost"
							],
							"port": "3000",
							"path": [
								"room_management",
								"rooms",
								"0d66d7b8-9ce2-4327-abfd-0d46723881fc",
								"users"
							]
						}
					},
					"response": []
				},
				{
					"name": "[FAIL] random user tries to add a user to a room that he isn't the owner",
					"request": {
						"method": "POST",
						"header": [
							{
								"key": "user-id",
								"value": "61842d49-a67c-451c-9675-537b9eca963c",
								"type": "default"
							}
						],
						"body": {
							"mode": "raw",
							"raw": "{\n    \"userId\": \"cddbda0e-b709-4fb4-8b4e-8f9736405d30\"\n}",
							"options": {
								"raw": {
									"language": "json"
								}
							}
						},
						"url": {
							"raw": "localhost:3000/room_management/rooms/de47f7b3-527e-4f7d-a631-8ea0e366bc0f/users",
							"host": [
								"localhost"
							],
							"port": "3000",
							"path": [
								"room_management",
								"rooms",
								"de47f7b3-527e-4f7d-a631-8ea0e366bc0f",
								"users"
							]
						}
					},
					"response": []
				},
				{
					"name": "[FAIL] user attempts to enter a room that is already in",
					"request": {
						"method": "POST",
						"header": [
							{
								"key": "user-id",
								"value": "14b3f7ea-22ed-4e63-bc1d-9f50a6133af9",
								"type": "default"
							}
						],
						"body": {
							"mode": "raw",
							"raw": "{\n    \"userId\": \"14b3f7ea-22ed-4e63-bc1d-9f50a6133af9\"\n}",
							"options": {
								"raw": {
									"language": "json"
								}
							}
						},
						"url": {
							"raw": "localhost:3000/room_management/rooms/de47f7b3-527e-4f7d-a631-8ea0e366bc0f/users",
							"host": [
								"localhost"
							],
							"port": "3000",
							"path": [
								"room_management",
								"rooms",
								"de47f7b3-527e-4f7d-a631-8ea0e366bc0f",
								"users"
							]
						}
					},
					"response": []
				},
				{
					"name": "[FAIL] user-id from user to add is not a valid UUID",
					"request": {
						"method": "POST",
						"header": [
							{
								"key": "user-id",
								"value": "80cc2550-81d4-4141-bc89-7bc7a519e4aa",
								"type": "default"
							}
						],
						"body": {
							"mode": "raw",
							"raw": "{\n    \"userId\": \"cddbda0e-b709-4fb4-8b4e-8f9736405d3\"\n}",
							"options": {
								"raw": {
									"language": "json"
								}
							}
						},
						"url": {
							"raw": "localhost:3000/room_management/rooms/0d66d7b8-9ce2-4327-abfd-0d46723881fc/users",
							"host": [
								"localhost"
							],
							"port": "3000",
							"path": [
								"room_management",
								"rooms",
								"0d66d7b8-9ce2-4327-abfd-0d46723881fc",
								"users"
							]
						}
					},
					"response": []
				},
				{
					"name": "[FAIL] the userId to add to the room is not found",
					"request": {
						"method": "POST",
						"header": [
							{
								"key": "user-id",
								"value": "80cc2550-81d4-4141-bc89-7bc7a519e4aa",
								"type": "default"
							}
						],
						"body": {
							"mode": "raw",
							"raw": "{\n    \"userId\": \"de47f7b3-527e-4f7d-a631-8ea0e366bc0f\"\n}",
							"options": {
								"raw": {
									"language": "json"
								}
							}
						},
						"url": {
							"raw": "localhost:3000/room_management/rooms/0d66d7b8-9ce2-4327-abfd-0d46723881fc/users",
							"host": [
								"localhost"
							],
							"port": "3000",
							"path": [
								"room_management",
								"rooms",
								"0d66d7b8-9ce2-4327-abfd-0d46723881fc",
								"users"
							]
						}
					},
					"response": []
				},
				{
					"name": "[FAIL] roomId does not exist",
					"request": {
						"method": "POST",
						"header": [
							{
								"key": "user-id",
								"value": "cddbda0e-b709-4fb4-8b4e-8f9736405d30",
								"type": "default"
							}
						],
						"body": {
							"mode": "raw",
							"raw": "{\n    \"userId\": \"cddbda0e-b709-4fb4-8b4e-8f9736405d30\"\n}",
							"options": {
								"raw": {
									"language": "json"
								}
							}
						},
						"url": {
							"raw": "localhost:3000/room_management/rooms/f34c331c-293d-4327-88a0-011141c7bf4d/users",
							"host": [
								"localhost"
							],
							"port": "3000",
							"path": [
								"room_management",
								"rooms",
								"f34c331c-293d-4327-88a0-011141c7bf4d",
								"users"
							]
						}
					},
					"response": []
				},
				{
					"name": "[FAIL] Missing user's userId to add",
					"request": {
						"method": "POST",
						"header": [
							{
								"key": "user-id",
								"value": "cddbda0e-b709-4fb4-8b4e-8f9736405d30",
								"type": "default"
							}
						],
						"body": {
							"mode": "raw",
							"raw": "{\n    \n}",
							"options": {
								"raw": {
									"language": "json"
								}
							}
						},
						"url": {
							"raw": "localhost:3000/room_management/rooms/de47f7b3-527e-4f7d-a631-8ea0e366bc0f/users",
							"host": [
								"localhost"
							],
							"port": "3000",
							"path": [
								"room_management",
								"rooms",
								"de47f7b3-527e-4f7d-a631-8ea0e366bc0f",
								"users"
							]
						}
					},
					"response": []
				}
			]
		},
		{
			"name": "Create room",
			"item": [
				{
					"name": "[OK] User add correctly new room",
					"request": {
						"method": "POST",
						"header": [
							{
								"key": "user-id",
								"value": "14b3f7ea-22ed-4e63-bc1d-9f50a6133af9",
								"type": "default"
							}
						],
						"body": {
							"mode": "raw",
							"raw": "{\n    \"name\": \"metal room\",\n    \"description\": \"random description\"\n}",
							"options": {
								"raw": {
									"language": "json"
								}
							}
						},
						"url": {
							"raw": "localhost:3000/room_management/rooms",
							"host": [
								"localhost"
							],
							"port": "3000",
							"path": [
								"room_management",
								"rooms"
							]
						}
					},
					"response": []
				},
				{
					"name": "[FAIL] Room's name already used",
					"request": {
						"method": "POST",
						"header": [
							{
								"key": "user-id",
								"value": "14b3f7ea-22ed-4e63-bc1d-9f50a6133af9",
								"type": "default"
							}
						],
						"body": {
							"mode": "raw",
							"raw": "{\n    \"name\": \"Rock\",\n    \"description\": \"random description\"\n}",
							"options": {
								"raw": {
									"language": "json"
								}
							}
						},
						"url": {
							"raw": "localhost:3000/room_management/rooms",
							"host": [
								"localhost"
							],
							"port": "3000",
							"path": [
								"room_management",
								"rooms"
							]
						}
					},
					"response": []
				}
			]
		},
		{
			"name": "Send message to room",
			"item": [
				{
					"name": "[OK] User in room send a message",
					"request": {
						"method": "POST",
						"header": [
							{
								"key": "user-id",
								"value": "14b3f7ea-22ed-4e63-bc1d-9f50a6133af9",
								"type": "default"
							}
						],
						"body": {
							"mode": "raw",
							"raw": "{\n    \"text\": \"I really love rock, Mark Knopfler is the best\"\n}",
							"options": {
								"raw": {
									"language": "json"
								}
							}
						},
						"url": {
							"raw": "localhost:3000/messaging/rooms/de47f7b3-527e-4f7d-a631-8ea0e366bc0f/messages",
							"host": [
								"localhost"
							],
							"port": "3000",
							"path": [
								"messaging",
								"rooms",
								"de47f7b3-527e-4f7d-a631-8ea0e366bc0f",
								"messages"
							]
						}
					},
					"response": []
				},
				{
					"name": "[FAIL] Missing message's text",
					"request": {
						"method": "POST",
						"header": [
							{
								"key": "user-id",
								"value": "14b3f7ea-22ed-4e63-bc1d-9f50a6133af9",
								"type": "default"
							}
						],
						"body": {
							"mode": "raw",
							"raw": "{\n    \n}",
							"options": {
								"raw": {
									"language": "json"
								}
							}
						},
						"url": {
							"raw": "localhost:3000/messaging/rooms/de47f7b3-527e-4f7d-a631-8ea0e366bc0f/messages",
							"host": [
								"localhost"
							],
							"port": "3000",
							"path": [
								"messaging",
								"rooms",
								"de47f7b3-527e-4f7d-a631-8ea0e366bc0f",
								"messages"
							]
						}
					},
					"response": []
				},
				{
					"name": "[FAIL] Room id is invalid UUID",
					"request": {
						"method": "POST",
						"header": [
							{
								"key": "user-id",
								"value": "14b3f7ea-22ed-4e63-bc1d-9f50a6133af9",
								"type": "default"
							}
						],
						"body": {
							"mode": "raw",
							"raw": "{\n    \"text\": \"I really love rock, Mark Knopfler is the best\"\n}",
							"options": {
								"raw": {
									"language": "json"
								}
							}
						},
						"url": {
							"raw": "localhost:3000/messaging/rooms/de47f7b3-527e-4f7d-a631-8ea0e366bc0/messages",
							"host": [
								"localhost"
							],
							"port": "3000",
							"path": [
								"messaging",
								"rooms",
								"de47f7b3-527e-4f7d-a631-8ea0e366bc0",
								"messages"
							]
						}
					},
					"response": []
				},
				{
					"name": "[FAIL] Not found room id",
					"request": {
						"method": "POST",
						"header": [
							{
								"key": "user-id",
								"value": "14b3f7ea-22ed-4e63-bc1d-9f50a6133af9",
								"type": "default"
							}
						],
						"body": {
							"mode": "raw",
							"raw": "{\n    \"text\": \"I really love rock, Mark Knopfler is the best\"\n}",
							"options": {
								"raw": {
									"language": "json"
								}
							}
						},
						"url": {
							"raw": "localhost:3000/messaging/rooms/14b3f7ea-22ed-4e63-bc1d-9f50a6133af9/messages",
							"host": [
								"localhost"
							],
							"port": "3000",
							"path": [
								"messaging",
								"rooms",
								"14b3f7ea-22ed-4e63-bc1d-9f50a6133af9",
								"messages"
							]
						}
					},
					"response": []
				},
				{
					"name": "[FAIL] User not in room",
					"request": {
						"method": "POST",
						"header": [
							{
								"key": "user-id",
								"value": "14b3f7ea-22ed-4e63-bc1d-9f50a6133af9",
								"type": "default"
							}
						],
						"body": {
							"mode": "raw",
							"raw": "{\n    \"text\": \"I really love rock, Mark Knopfler is the best\"\n}",
							"options": {
								"raw": {
									"language": "json"
								}
							}
						},
						"url": {
							"raw": "localhost:3000/messaging/rooms/0d66d7b8-9ce2-4327-abfd-0d46723881fc/messages",
							"host": [
								"localhost"
							],
							"port": "3000",
							"path": [
								"messaging",
								"rooms",
								"0d66d7b8-9ce2-4327-abfd-0d46723881fc",
								"messages"
							]
						}
					},
					"response": []
				}
			]
		},
		{
			"name": "Get messages from room",
			"item": [
				{
					"name": "[OK] [No pagination] User in room receive all messages",
					"request": {
						"method": "GET",
						"header": [
							{
								"key": "user-id",
								"value": "cddbda0e-b709-4fb4-8b4e-8f9736405d30",
								"type": "default"
							}
						],
						"url": {
							"raw": "localhost:3000/messaging/rooms/d6944a43-3256-420a-9429-8d212bc6b6aa/messages",
							"host": [
								"localhost"
							],
							"port": "3000",
							"path": [
								"messaging",
								"rooms",
								"d6944a43-3256-420a-9429-8d212bc6b6aa",
								"messages"
							]
						}
					},
					"response": []
				},
				{
					"name": "[OK] [Pagination] User in room receive last messages skip=2 take=2",
					"request": {
						"method": "GET",
						"header": [
							{
								"key": "user-id",
								"value": "cddbda0e-b709-4fb4-8b4e-8f9736405d30",
								"type": "default"
							}
						],
						"url": {
							"raw": "localhost:3000/messaging/rooms/d6944a43-3256-420a-9429-8d212bc6b6aa/messages?skip=2&take=2",
							"host": [
								"localhost"
							],
							"port": "3000",
							"path": [
								"messaging",
								"rooms",
								"d6944a43-3256-420a-9429-8d212bc6b6aa",
								"messages"
							],
							"query": [
								{
									"key": "skip",
									"value": "2"
								},
								{
									"key": "take",
									"value": "2"
								}
							]
						}
					},
					"response": []
				},
				{
					"name": "[FAIL] [Pagination] Missing take parameter",
					"request": {
						"method": "GET",
						"header": [
							{
								"key": "user-id",
								"value": "cddbda0e-b709-4fb4-8b4e-8f9736405d30",
								"type": "default"
							}
						],
						"url": {
							"raw": "localhost:3000/messaging/rooms/d6944a43-3256-420a-9429-8d212bc6b6aa/messages?skip=2",
							"host": [
								"localhost"
							],
							"port": "3000",
							"path": [
								"messaging",
								"rooms",
								"d6944a43-3256-420a-9429-8d212bc6b6aa",
								"messages"
							],
							"query": [
								{
									"key": "skip",
									"value": "2"
								}
							]
						}
					},
					"response": []
				},
				{
					"name": "[FAIL] [Pagination] Missing skip parameter",
					"request": {
						"method": "GET",
						"header": [
							{
								"key": "user-id",
								"value": "cddbda0e-b709-4fb4-8b4e-8f9736405d30",
								"type": "default"
							}
						],
						"url": {
							"raw": "localhost:3000/messaging/rooms/d6944a43-3256-420a-9429-8d212bc6b6aa/messages?take=2",
							"host": [
								"localhost"
							],
							"port": "3000",
							"path": [
								"messaging",
								"rooms",
								"d6944a43-3256-420a-9429-8d212bc6b6aa",
								"messages"
							],
							"query": [
								{
									"key": "take",
									"value": "2"
								}
							]
						}
					},
					"response": []
				},
				{
					"name": "[FAIL] [Pagination] Invalid Int skip parameter",
					"request": {
						"method": "GET",
						"header": [
							{
								"key": "user-id",
								"value": "cddbda0e-b709-4fb4-8b4e-8f9736405d30",
								"type": "default"
							}
						],
						"url": {
							"raw": "localhost:3000/messaging/rooms/d6944a43-3256-420a-9429-8d212bc6b6aa/messages?skip=a&take=2",
							"host": [
								"localhost"
							],
							"port": "3000",
							"path": [
								"messaging",
								"rooms",
								"d6944a43-3256-420a-9429-8d212bc6b6aa",
								"messages"
							],
							"query": [
								{
									"key": "skip",
									"value": "a"
								},
								{
									"key": "take",
									"value": "2"
								}
							]
						}
					},
					"response": []
				},
				{
					"name": "[FAIL] [Pagination] Invalid Int take parameter",
					"request": {
						"method": "GET",
						"header": [
							{
								"key": "user-id",
								"value": "cddbda0e-b709-4fb4-8b4e-8f9736405d30",
								"type": "default"
							}
						],
						"url": {
							"raw": "localhost:3000/messaging/rooms/d6944a43-3256-420a-9429-8d212bc6b6aa/messages?skip=2&take=a",
							"host": [
								"localhost"
							],
							"port": "3000",
							"path": [
								"messaging",
								"rooms",
								"d6944a43-3256-420a-9429-8d212bc6b6aa",
								"messages"
							],
							"query": [
								{
									"key": "skip",
									"value": "2"
								},
								{
									"key": "take",
									"value": "a"
								}
							]
						}
					},
					"response": []
				},
				{
					"name": "[FAIL] [No pagination] Room not found",
					"request": {
						"method": "GET",
						"header": [
							{
								"key": "user-id",
								"value": "cddbda0e-b709-4fb4-8b4e-8f9736405d30",
								"type": "default"
							}
						],
						"url": {
							"raw": "localhost:3000/messaging/rooms/d6944a43-3256-420a-9429-8d212bc6b6a/messages",
							"host": [
								"localhost"
							],
							"port": "3000",
							"path": [
								"messaging",
								"rooms",
								"d6944a43-3256-420a-9429-8d212bc6b6a",
								"messages"
							]
						}
					},
					"response": []
				},
				{
					"name": "[FAIL] [No pagination] User not in room",
					"request": {
						"method": "GET",
						"header": [
							{
								"key": "user-id",
								"value": "a0a6b56d-04dc-4a2d-95a8-7e6eead74312",
								"type": "default"
							}
						],
						"url": {
							"raw": "localhost:3000/messaging/rooms/d6944a43-3256-420a-9429-8d212bc6b6aa/messages",
							"host": [
								"localhost"
							],
							"port": "3000",
							"path": [
								"messaging",
								"rooms",
								"d6944a43-3256-420a-9429-8d212bc6b6aa",
								"messages"
							]
						}
					},
					"response": []
				}
			]
		},
		{
			"name": "Middleware getUser",
			"item": [
				{
					"name": "[OK] Valid request header user-id",
					"request": {
						"method": "GET",
						"header": [
							{
								"key": "user-id",
								"value": "cddbda0e-b709-4fb4-8b4e-8f9736405d30",
								"type": "default"
							}
						],
						"url": {
							"raw": "localhost:3000/messaging/rooms/d6944a43-3256-420a-9429-8d212bc6b6aa/messages",
							"host": [
								"localhost"
							],
							"port": "3000",
							"path": [
								"messaging",
								"rooms",
								"d6944a43-3256-420a-9429-8d212bc6b6aa",
								"messages"
							]
						}
					},
					"response": []
				},
				{
					"name": "[FAIL] Valid UUID but user-id not found",
					"request": {
						"method": "GET",
						"header": [
							{
								"key": "user-id",
								"value": "cddbda0e-b709-4fb4-8b4e-8f9736405d39",
								"type": "default"
							}
						],
						"url": {
							"raw": "localhost:3000/messaging/rooms/d6944a43-3256-420a-9429-8d212bc6b6aa/messages",
							"host": [
								"localhost"
							],
							"port": "3000",
							"path": [
								"messaging",
								"rooms",
								"d6944a43-3256-420a-9429-8d212bc6b6aa",
								"messages"
							]
						}
					},
					"response": []
				},
				{
					"name": "[FAIL] Invalid UUID format for user-id",
					"request": {
						"method": "GET",
						"header": [
							{
								"key": "user-id",
								"value": "cddbda0e-b709-4fb4-8b4e-8f9736405d3",
								"type": "default"
							}
						],
						"url": {
							"raw": "localhost:3000/messaging/rooms/d6944a43-3256-420a-9429-8d212bc6b6aa/messages",
							"host": [
								"localhost"
							],
							"port": "3000",
							"path": [
								"messaging",
								"rooms",
								"d6944a43-3256-420a-9429-8d212bc6b6aa",
								"messages"
							]
						}
					},
					"response": []
				},
				{
					"name": "[FAIL] Empty header user-id",
					"request": {
						"method": "GET",
						"header": [
							{
								"key": "user-id",
								"value": "cddbda0e-b709-4fb4-8b4e-8f9736405d3",
								"type": "default",
								"disabled": true
							}
						],
						"url": {
							"raw": "localhost:3000/messaging/rooms/d6944a43-3256-420a-9429-8d212bc6b6aa/messages",
							"host": [
								"localhost"
							],
							"port": "3000",
							"path": [
								"messaging",
								"rooms",
								"d6944a43-3256-420a-9429-8d212bc6b6aa",
								"messages"
							]
						}
					},
					"response": []
				}
			]
		}
	]
}